# Blender v2.79 (sub 0) OBJ File: 'WallScene_25_20_03_B_02.blend'
# www.blender.org
o Rumble_B_Cube.008
v -0.451442 -0.111135 4.239686
v -0.040889 0.242148 4.093971
v -0.161564 -0.075450 1.865027
v -0.212545 -0.051249 2.361562
v 0.264360 -0.461835 4.449622
v 0.437102 0.179141 4.271526
v 0.248976 -0.379843 1.787673
v 0.121942 0.138047 2.595023
v -0.429985 0.057714 3.318706
v -0.204716 0.068011 3.045443
v 0.430471 -0.193489 3.144319
v 0.245305 0.024521 3.111807
v -0.226619 0.123887 2.804873
v 0.592112 -0.143133 2.565437
v -0.628900 -0.225913 2.288022
v 0.062519 -0.122209 2.795354
v -0.464354 -0.121778 3.808130
v 0.457035 0.170178 3.419527
v -0.196874 0.153580 3.477381
v 0.492642 -0.214429 3.561758
vn -0.3447 0.9132 -0.2175
vn 0.2142 0.9120 -0.3499
vn 0.9875 -0.0920 0.1283
vn -0.1596 0.3891 0.9072
vn 0.3688 0.8863 -0.2801
vn 0.0483 0.9963 -0.0706
vn 0.2879 0.9514 -0.1092
vn -0.4250 0.9017 0.0797
vn 0.5034 0.8549 -0.1254
vn 0.0415 0.9899 0.1356
vn -0.4743 0.8772 -0.0748
vn -0.6655 0.7455 0.0367
vn 0.0255 0.9520 -0.3052
vn 0.8995 0.2200 -0.3776
s off
f 15//1 13//1 4//1 3//1
f 3//2 4//2 8//2 7//2
f 20//3 18//3 6//3 5//3
f 5//4 6//4 2//4 1//4
f 16//5 13//5 10//5 12//5
f 18//6 19//6 2//6 6//6
f 14//7 16//7 12//7 11//7
f 17//8 19//8 10//8 9//8
f 7//9 8//9 16//9 14//9
f 8//10 4//10 13//10 16//10
f 9//11 10//11 13//11 15//11
f 1//12 2//12 19//12 17//12
f 12//13 10//13 19//13 18//13
f 11//14 12//14 18//14 20//14
o Rumble_A_Cube.007
v -0.500104 -0.145287 2.176606
v -0.105366 0.128262 1.919743
v -0.374061 -0.144994 -0.090705
v -0.370865 0.129117 0.206449
v 0.362924 -0.143420 2.060349
v 0.156392 0.157168 1.695902
v 0.400859 -0.141142 -0.265821
v 0.155809 0.134068 0.526028
v -0.490732 -0.151100 1.155362
v -0.200921 0.097319 1.006879
v 0.582244 -0.145581 1.286108
v 0.219190 0.067175 1.004822
v -0.221164 0.130962 0.713089
v 0.547917 -0.146764 0.425489
v -0.569832 -0.144581 0.331127
v 0.209266 -0.066282 0.913816
v -0.533305 -0.142378 1.899386
v 0.314796 0.121158 1.255779
v -0.309112 0.160098 1.304772
v 0.393503 -0.147544 1.732871
v -0.500104 -0.145287 2.176606
v -0.374061 -0.144994 -0.090705
v 0.362924 -0.143420 2.060349
v 0.400859 -0.141142 -0.265821
v -0.490732 -0.151100 1.155362
v 0.582244 -0.145581 1.286108
v 0.547917 -0.146764 0.425489
v -0.569832 -0.144581 0.331127
v -0.533305 -0.142378 1.899386
v 0.393503 -0.147544 1.732871
vn -0.8171 0.5749 -0.0419
vn 0.0430 0.8958 -0.4423
vn 0.7701 0.6183 0.1573
vn 0.1918 0.6912 0.6968
vn 0.3058 0.9155 -0.2614
vn 0.0100 0.9999 -0.0044
vn 0.3441 0.9273 -0.1472
vn -0.8185 0.5528 -0.1564
vn 0.5892 0.8068 0.0445
vn 0.0894 0.9764 0.1964
vn -0.6505 0.7548 0.0849
vn -0.5323 0.8286 0.1736
vn 0.0545 0.9769 -0.2066
vn 0.7032 0.7098 0.0410
s off
f 35//15 33//15 24//15 23//15
f 23//16 24//16 28//16 27//16
f 40//17 38//17 26//17 25//17
f 25//18 26//18 22//18 21//18
f 36//19 33//19 30//19 32//19
f 38//20 39//20 22//20 26//20
f 34//21 36//21 32//21 31//21
f 37//22 39//22 30//22 29//22
f 27//23 28//23 36//23 34//23
f 28//24 24//24 33//24 36//24
f 29//25 30//25 33//25 35//25
f 21//26 22//26 39//26 37//26
f 32//27 30//27 39//27 38//27
f 31//28 32//28 38//28 40//28
l 49 41
l 44 42
l 47 44
l 41 43
l 48 45
l 50 46
l 46 47
l 42 48
l 45 49
l 43 50
o Base_Window_C_wide_Cube.006
v 0.150000 2.500000 -0.000708
v 0.148500 2.500000 4.000000
v -0.150000 2.500000 -0.000708
v -0.151500 2.500000 4.001593
v 0.148500 2.500000 3.601593
v -0.151500 2.500000 3.601593
v -0.151500 2.500000 0.399292
v 0.148500 2.500000 0.399292
v 0.150000 0.000000 -0.002831
v 0.148500 0.000000 3.999469
v -0.151500 0.000000 3.999469
v -0.150000 0.000000 -0.002831
v -0.151500 0.000000 3.599469
v 0.148500 0.000000 3.599469
v 0.148500 0.000000 0.397169
v -0.151500 0.000000 0.397169
v 0.150000 2.000000 -0.002831
v 0.148500 2.000000 3.999469
v -0.151500 2.000000 3.999469
v -0.150000 2.000000 -0.002831
v -0.151500 2.000000 3.599469
v 0.148500 2.000000 3.599469
v 0.148500 2.000000 0.397169
v -0.151500 2.000000 0.397169
vn 1.0000 -0.0000 -0.0000
vn 0.0027 -0.0027 1.0000
vn -1.0000 0.0000 -0.0038
vn -0.0000 0.0042 -1.0000
vn -1.0000 0.0000 0.0000
vn 1.0000 -0.0000 0.0038
vn -0.0000 0.0000 -1.0000
vn 0.0000 0.0000 1.0000
vn 0.0000 -1.0000 0.0000
s off
f 72//29 55//29 52//29 68//29
f 68//30 52//30 54//30 69//30
f 74//31 57//31 53//31 70//31
f 70//32 53//32 51//32 67//32
f 69//33 54//33 56//33 71//33
f 73//29 58//29 55//29 72//29
f 67//34 51//34 58//34 73//34
f 71//33 56//33 57//33 74//33
f 59//34 67//34 73//34 65//34
f 61//33 69//33 71//33 63//33
f 62//35 70//35 67//35 59//35
f 66//31 74//31 70//31 62//31
f 60//36 68//36 69//36 61//36
f 64//29 72//29 68//29 60//29
f 71//37 74//37 73//37 72//37
f 65//36 73//36 74//36 66//36
f 63//35 71//35 72//35 64//35
