# Blender v2.79 (sub 0) OBJ File: 'WallScene_25_20_03_B_02.blend'
# www.blender.org
o Cube.003
v -0.150000 0.000000 2.000000
v -0.150000 0.658326 2.000000
v -0.150000 0.000000 0.000000
v -0.150000 0.658326 0.000000
v 0.150000 0.000000 2.000000
v 0.150000 0.658326 2.000000
v 0.150000 0.000000 0.000000
v 0.150000 0.658326 0.000000
v -0.150000 0.000000 1.000000
v -0.150000 0.658326 1.000000
v 0.150000 0.000000 1.000000
v 0.150000 0.658326 1.000000
v -0.150000 0.658326 0.500000
v 0.150000 0.000000 0.500000
v -0.150000 0.000000 0.500000
v 0.150000 0.658326 0.500000
v -0.150000 0.000000 1.500000
v 0.150000 0.658326 1.500000
v -0.150000 0.658326 1.500000
v 0.150000 0.000000 1.500000
v -0.150000 1.015856 0.500000
v -0.150000 1.015856 0.000000
v 0.150000 1.015856 0.000000
v -0.150000 1.015856 1.500000
v -0.150000 1.015856 1.000000
v 0.150000 1.015856 0.500000
v 0.150000 1.015856 1.000000
v 0.150000 1.015856 1.500000
v -0.150000 1.387467 0.500000
v -0.150000 1.387467 0.000000
v 0.150000 1.387467 0.000000
v 0.150000 1.387467 0.500000
v 0.150000 1.387467 1.000000
v -0.150000 1.387467 1.000000
v 0.150000 1.569151 0.500000
v 0.150000 1.569151 1.000000
v -0.150000 1.569151 1.000000
v -0.150000 1.569151 0.500000
vn -1.0000 0.0000 0.0000
vn 0.0000 0.0000 -1.0000
vn 1.0000 0.0000 0.0000
vn 0.0000 0.0000 1.0000
vn 0.0000 1.0000 0.0000
s off
f 15//1 13//1 4//1 3//1
f 3//2 4//2 8//2 7//2
f 20//3 18//3 6//3 5//3
f 5//4 6//4 2//4 1//4
f 16//3 8//3 23//3 26//3
f 10//1 19//1 24//1 25//1
f 14//3 16//3 12//3 11//3
f 17//1 19//1 10//1 9//1
f 7//3 8//3 16//3 14//3
f 4//1 13//1 21//1 22//1
f 9//1 10//1 13//1 15//1
f 1//1 2//1 19//1 17//1
f 2//5 6//5 18//5 19//5
f 11//3 12//3 18//3 20//3
f 21//1 25//1 34//1 29//1
f 24//5 28//5 27//5 25//5
f 22//1 21//1 29//1 30//1
f 19//4 18//4 28//4 24//4
f 18//3 12//3 27//3 28//3
f 8//2 4//2 22//2 23//2
f 13//1 10//1 25//1 21//1
f 12//3 16//3 26//3 27//3
f 29//5 32//5 31//5 30//5
f 32//2 29//2 38//2 35//2
f 27//3 26//3 32//3 33//3
f 23//2 22//2 30//2 31//2
f 26//3 23//3 31//3 32//3
f 25//4 27//4 33//4 34//4
f 37//5 36//5 35//5 38//5
f 29//1 34//1 37//1 38//1
f 33//3 32//3 35//3 36//3
f 34//4 33//4 36//4 37//4
