<?xml version="1.0" encoding="UTF-8"?>
<osm version="0.6" generator="CGImap 0.6.0 (1941 thorn-03.openstreetmap.org)" copyright="OpenStreetMap and contributors" attribution="http://www.openstreetmap.org/copyright" license="http://opendatacommons.org/licenses/odbl/1-0/">
 <bounds minlat="49.1404000" minlon="-11.0464000" maxlat="49.2792000" maxlon="-10.6976000"/>
 <node id="920343124" visible="true" version="1" changeset="5837860" timestamp="2010-09-21T15:22:43Z" user="olvagor" uid="63969" lat="49.1030000" lon="-11.3500000"/>
 <node id="920343149" visible="true" version="1" changeset="5837860" timestamp="2010-09-21T15:22:44Z" user="olvagor" uid="63969" lat="49.3451670" lon="-9.9685000"/>
 <node id="920343181" visible="true" version="1" changeset="5837860" timestamp="2010-09-21T15:22:45Z" user="olvagor" uid="63969" lat="49.7153330" lon="-6.8516670"/>
 <node id="920343199" visible="true" version="1" changeset="5837860" timestamp="2010-09-21T15:22:45Z" user="olvagor" uid="63969" lat="47.9168330" lon="-16.0833330"/>
 <node id="920343220" visible="true" version="1" changeset="5837860" timestamp="2010-09-21T15:22:46Z" user="olvagor" uid="63969" lat="49.2728330" lon="-10.3833330"/>
 <node id="920343241" visible="true" version="1" changeset="5837860" timestamp="2010-09-21T15:22:46Z" user="olvagor" uid="63969" lat="49.3983330" lon="-9.6366670"/>
 <node id="920343266" visible="true" version="1" changeset="5837860" timestamp="2010-09-21T15:22:47Z" user="olvagor" uid="63969" lat="49.7516670" lon="-6.3273330"/>
 <node id="920343272" visible="true" version="1" changeset="5837860" timestamp="2010-09-21T15:22:47Z" user="olvagor" uid="63969" lat="50.0570000" lon="-5.7988330"/>
 <node id="920343294" visible="true" version="1" changeset="5837860" timestamp="2010-09-21T15:22:48Z" user="olvagor" uid="63969" lat="48.6695000" lon="-14.2945000"/>
 <node id="920343318" visible="true" version="1" changeset="5837860" timestamp="2010-09-21T15:22:48Z" user="olvagor" uid="63969" lat="49.2083330" lon="-10.7556670"/>
 <node id="920343336" visible="true" version="1" changeset="5837860" timestamp="2010-09-21T15:22:49Z" user="olvagor" uid="63969" lat="48.8880000" lon="-13.5666670"/>
 <node id="920343337" visible="true" version="1" changeset="5837860" timestamp="2010-09-21T15:22:49Z" user="olvagor" uid="63969" lat="49.4688330" lon="-9.2000000"/>
 <node id="920343353" visible="true" version="1" changeset="5837860" timestamp="2010-09-21T15:22:49Z" user="olvagor" uid="63969" lat="49.9773330" lon="-5.9315000"/>
 <node id="920343356" visible="true" version="1" changeset="5837860" timestamp="2010-09-21T15:22:50Z" user="olvagor" uid="63969" lat="50.0006670" lon="-5.8946670"/>
 <node id="920343367" visible="true" version="1" changeset="5837860" timestamp="2010-09-21T15:22:50Z" user="olvagor" uid="63969" lat="49.6913330" lon="-7.1055000"/>
 <node id="920343380" visible="true" version="1" changeset="5837860" timestamp="2010-09-21T15:22:51Z" user="olvagor" uid="63969" lat="47.1275830" lon="-19.4941000"/>
 <node id="920343391" visible="true" version="1" changeset="5837860" timestamp="2010-09-21T15:22:51Z" user="olvagor" uid="63969" lat="48.9930000" lon="-12.1083330"/>
 <node id="920343393" visible="true" version="1" changeset="5837860" timestamp="2010-09-21T15:22:51Z" user="olvagor" uid="63969" lat="49.6183330" lon="-7.8473330"/>
 <node id="920343407" visible="true" version="1" changeset="5837860" timestamp="2010-09-21T15:22:52Z" user="olvagor" uid="63969" lat="49.3521670" lon="-9.9201670"/>
 <node id="920343412" visible="true" version="1" changeset="5837860" timestamp="2010-09-21T15:22:52Z" user="olvagor" uid="63969" lat="50.0856670" lon="-5.7120000"/>
 <node id="920343425" visible="true" version="1" changeset="5837860" timestamp="2010-09-21T15:22:52Z" user="olvagor" uid="63969" lat="49.6555000" lon="-7.4670000"/>
 <node id="920343440" visible="true" version="1" changeset="5837860" timestamp="2010-09-21T15:22:53Z" user="olvagor" uid="63969" lat="47.1833330" lon="-18.5000000"/>
 <node id="920343450" visible="true" version="1" changeset="5837860" timestamp="2010-09-21T15:22:53Z" user="olvagor" uid="63969" lat="49.1241670" lon="-11.2241670"/>
 <node id="920343465" visible="true" version="1" changeset="5837860" timestamp="2010-09-21T15:22:54Z" user="olvagor" uid="63969" lat="49.4261670" lon="-9.4578330"/>
 <node id="920343469" visible="true" version="1" changeset="5837860" timestamp="2010-09-21T15:22:54Z" user="olvagor" uid="63969" lat="50.0813330" lon="-5.6921670"/>
 <node id="920343480" visible="true" version="1" changeset="5837860" timestamp="2010-09-21T15:22:55Z" user="olvagor" uid="63969" lat="49.7146670" lon="-6.8433330"/>
 <node id="920343494" visible="true" version="1" changeset="5837860" timestamp="2010-09-21T15:22:55Z" user="olvagor" uid="63969" lat="47.5793330" lon="-16.7540000"/>
 <node id="920343509" visible="true" version="1" changeset="5837860" timestamp="2010-09-21T15:22:56Z" user="olvagor" uid="63969" lat="49.2795000" lon="-10.3438330"/>
 <node id="920343524" visible="true" version="1" changeset="5837860" timestamp="2010-09-21T15:22:56Z" user="olvagor" uid="63969" lat="48.9566670" lon="-12.5656670"/>
 <node id="920343525" visible="true" version="1" changeset="5837860" timestamp="2010-09-21T15:22:56Z" user="olvagor" uid="63969" lat="49.4016670" lon="-9.6171670"/>
 <node id="920343560" visible="true" version="1" changeset="5837860" timestamp="2010-09-21T15:22:57Z" user="olvagor" uid="63969" lat="49.7256670" lon="-6.7585000"/>
 <node id="920343564" visible="true" version="1" changeset="5837860" timestamp="2010-09-21T15:22:57Z" user="olvagor" uid="63969" lat="50.0725000" lon="-5.7755000"/>
 <node id="920343589" visible="true" version="1" changeset="5837860" timestamp="2010-09-21T15:22:58Z" user="olvagor" uid="63969" lat="48.7433330" lon="-14.1273330"/>
 <node id="920343607" visible="true" version="1" changeset="5837860" timestamp="2010-09-21T15:22:58Z" user="olvagor" uid="63969" lat="47.1436670" lon="-19.3550000"/>
 <node id="920343623" visible="true" version="1" changeset="5837860" timestamp="2010-09-21T15:22:59Z" user="olvagor" uid="63969" lat="48.9178330" lon="-13.1855000"/>
 <node id="920343624" visible="true" version="1" changeset="5837860" timestamp="2010-09-21T15:22:59Z" user="olvagor" uid="63969" lat="49.4796670" lon="-9.1348330"/>
 <node id="920343646" visible="true" version="1" changeset="5837860" timestamp="2010-09-21T15:22:59Z" user="olvagor" uid="63969" lat="49.9510000" lon="-5.9833330"/>
 <node id="920343660" visible="true" version="1" changeset="5837860" timestamp="2010-09-21T15:23:00Z" user="olvagor" uid="63969" lat="50.0855000" lon="-5.7103330"/>
 <node id="920343686" visible="true" version="1" changeset="5837860" timestamp="2010-09-21T15:23:00Z" user="olvagor" uid="63969" lat="49.7020000" lon="-6.9921670"/>
 <node id="920343699" visible="true" version="1" changeset="5837860" timestamp="2010-09-21T15:23:01Z" user="olvagor" uid="63969" lat="47.3601670" lon="-17.4495000"/>
 <node id="920343722" visible="true" version="1" changeset="5837860" timestamp="2010-09-21T15:23:01Z" user="olvagor" uid="63969" lat="49.0130000" lon="-11.9278330"/>
 <node id="920343727" visible="true" version="1" changeset="5837860" timestamp="2010-09-21T15:23:01Z" user="olvagor" uid="63969" lat="49.5466670" lon="-8.5581670"/>
 <node id="920343751" visible="true" version="1" changeset="5837860" timestamp="2010-09-21T15:23:02Z" user="olvagor" uid="63969" lat="49.3921670" lon="-9.6561670"/>
 <node id="920343790" visible="true" version="1" changeset="5837860" timestamp="2010-09-21T15:23:03Z" user="olvagor" uid="63969" lat="49.7183330" lon="-6.8326670"/>
 <node id="920343800" visible="true" version="1" changeset="5837860" timestamp="2010-09-21T15:23:03Z" user="olvagor" uid="63969" lat="47.3255000" lon="-17.9468330"/>
 <node id="920343818" visible="true" version="1" changeset="5837860" timestamp="2010-09-21T15:23:04Z" user="olvagor" uid="63969" lat="49.0661670" lon="-11.5723330"/>
 <node id="920343845" visible="true" version="1" changeset="5837860" timestamp="2010-09-21T15:23:04Z" user="olvagor" uid="63969" lat="49.4398330" lon="-9.3740000"/>
 <node id="920343868" visible="true" version="1" changeset="5837860" timestamp="2010-09-21T15:23:05Z" user="olvagor" uid="63969" lat="49.7503330" lon="-6.3320000"/>
 <node id="920343894" visible="true" version="1" changeset="5837860" timestamp="2010-09-21T15:23:05Z" user="olvagor" uid="63969" lat="47.7160000" lon="-16.5273330"/>
 <node id="920343914" visible="true" version="1" changeset="5837860" timestamp="2010-09-21T15:23:06Z" user="olvagor" uid="63969" lat="49.2058330" lon="-10.7696670"/>
 <node id="920343932" visible="true" version="1" changeset="5837860" timestamp="2010-09-21T15:23:06Z" user="olvagor" uid="63969" lat="48.9849830" lon="-12.2318170"/>
 <node id="920343933" visible="true" version="1" changeset="5837860" timestamp="2010-09-21T15:23:06Z" user="olvagor" uid="63969" lat="49.4890000" lon="-9.0645000"/>
 <node id="920343957" visible="true" version="1" changeset="5837860" timestamp="2010-09-21T15:23:07Z" user="olvagor" uid="63969" lat="49.7500000" lon="-6.4833330"/>
 <node id="920343959" visible="true" version="1" changeset="5837860" timestamp="2010-09-21T15:23:07Z" user="olvagor" uid="63969" lat="49.9995000" lon="-5.8965000"/>
 <node id="920343976" visible="true" version="1" changeset="5837860" timestamp="2010-09-21T15:23:07Z" user="olvagor" uid="63969" lat="48.1075000" lon="-15.6681670"/>
 <node id="920343997" visible="true" version="1" changeset="5837860" timestamp="2010-09-21T15:23:08Z" user="olvagor" uid="63969" lat="47.1838330" lon="-18.5990000"/>
 <node id="920344018" visible="true" version="1" changeset="5837860" timestamp="2010-09-21T15:23:09Z" user="olvagor" uid="63969" lat="49.0293330" lon="-11.8668330"/>
 <node id="920344021" visible="true" version="1" changeset="5837860" timestamp="2010-09-21T15:23:09Z" user="olvagor" uid="63969" lat="49.6075000" lon="-7.9555000"/>
 <node id="920344044" visible="true" version="1" changeset="5837860" timestamp="2010-09-21T15:23:09Z" user="olvagor" uid="63969" lat="49.9683330" lon="-5.9561670"/>
 <node id="920344051" visible="true" version="1" changeset="5837860" timestamp="2010-09-21T15:23:09Z" user="olvagor" uid="63969" lat="50.0851670" lon="-5.7035670"/>
 <node id="920344068" visible="true" version="1" changeset="5837860" timestamp="2010-09-21T15:23:10Z" user="olvagor" uid="63969" lat="49.6473330" lon="-7.5316670"/>
 <node id="920344090" visible="true" version="1" changeset="5837860" timestamp="2010-09-21T15:23:10Z" user="olvagor" uid="63969" lat="47.4411670" lon="-16.9913330"/>
 <node id="920344108" visible="true" version="1" changeset="5837860" timestamp="2010-09-21T15:23:11Z" user="olvagor" uid="63969" lat="49.1203330" lon="-11.2660000"/>
 <node id="920344111" visible="true" version="1" changeset="5837860" timestamp="2010-09-21T15:23:11Z" user="olvagor" uid="63969" lat="49.5850000" lon="-8.1820000"/>
 <node id="920344123" visible="true" version="1" changeset="5837860" timestamp="2010-09-21T15:23:11Z" user="olvagor" uid="63969" lat="49.3068330" lon="-10.1833330"/>
 <node id="920344138" visible="true" version="1" changeset="5837860" timestamp="2010-09-21T15:23:12Z" user="olvagor" uid="63969" lat="49.7198330" lon="-6.8226670"/>
 <node id="920344152" visible="true" version="1" changeset="5837860" timestamp="2010-09-21T15:23:12Z" user="olvagor" uid="63969" lat="47.7679500" lon="-16.4149830"/>
 <node id="920344161" visible="true" version="1" changeset="5837860" timestamp="2010-09-21T15:23:13Z" user="olvagor" uid="63969" lat="49.0933330" lon="-11.4221670"/>
 <node id="920344183" visible="true" version="1" changeset="5837860" timestamp="2010-09-21T15:23:13Z" user="olvagor" uid="63969" lat="49.3996670" lon="-9.6315000"/>
 <node id="920344212" visible="true" version="1" changeset="5837860" timestamp="2010-09-21T15:23:14Z" user="olvagor" uid="63969" lat="49.8230000" lon="-6.2040000"/>
 <node id="920344236" visible="true" version="1" changeset="5837860" timestamp="2010-09-21T15:23:15Z" user="olvagor" uid="63969" lat="48.6748330" lon="-14.2891670"/>
 <node id="920344247" visible="true" version="1" changeset="5837860" timestamp="2010-09-21T15:23:15Z" user="olvagor" uid="63969" lat="49.2201670" lon="-10.6826670"/>
 <node id="920344266" visible="true" version="1" changeset="5837860" timestamp="2010-09-21T15:23:16Z" user="olvagor" uid="63969" lat="48.9071670" lon="-13.3180000"/>
 <node id="920344269" visible="true" version="1" changeset="5837860" timestamp="2010-09-21T15:23:16Z" user="olvagor" uid="63969" lat="49.5201670" lon="-8.8166670"/>
 <node id="920344295" visible="true" version="1" changeset="5837860" timestamp="2010-09-21T15:23:16Z" user="olvagor" uid="63969" lat="49.9690000" lon="-5.9543330"/>
 <node id="920344299" visible="true" version="1" changeset="5837860" timestamp="2010-09-21T15:23:17Z" user="olvagor" uid="63969" lat="50.0075000" lon="-5.8846670"/>
 <node id="920344316" visible="true" version="1" changeset="5837860" timestamp="2010-09-21T15:23:17Z" user="olvagor" uid="63969" lat="48.3871670" lon="-14.9741670"/>
 <node id="920344346" visible="true" version="1" changeset="5837860" timestamp="2010-09-21T15:23:18Z" user="olvagor" uid="63969" lat="47.0076670" lon="-20.5018330"/>
 <node id="920344368" visible="true" version="1" changeset="5837860" timestamp="2010-09-21T15:23:18Z" user="olvagor" uid="63969" lat="49.0630000" lon="-11.5925000"/>
 <node id="920344370" visible="true" version="1" changeset="5837860" timestamp="2010-09-21T15:23:18Z" user="olvagor" uid="63969" lat="49.6300000" lon="-7.7333330"/>
 <node id="920344391" visible="true" version="1" changeset="5837860" timestamp="2010-09-21T15:23:19Z" user="olvagor" uid="63969" lat="49.3675170" lon="-9.8188830"/>
 <node id="920344394" visible="true" version="1" changeset="5837860" timestamp="2010-09-21T15:23:19Z" user="olvagor" uid="63969" lat="50.0758330" lon="-5.7666670"/>
 <node id="920344415" visible="true" version="1" changeset="5837860" timestamp="2010-09-21T15:23:20Z" user="olvagor" uid="63969" lat="49.6607500" lon="-7.4146000"/>
 <node id="920344442" visible="true" version="1" changeset="5837860" timestamp="2010-09-21T15:23:21Z" user="olvagor" uid="63969" lat="47.2218330" lon="-18.3425000"/>
 <node id="920344461" visible="true" version="1" changeset="5837860" timestamp="2010-09-21T15:23:21Z" user="olvagor" uid="63969" lat="49.1415000" lon="-11.1143330"/>
 <node id="920344475" visible="true" version="1" changeset="5837860" timestamp="2010-09-21T15:23:22Z" user="olvagor" uid="63969" lat="49.3433330" lon="-9.9815000"/>
 <node id="920344490" visible="true" version="1" changeset="5837860" timestamp="2010-09-21T15:23:23Z" user="olvagor" uid="63969" lat="49.7108330" lon="-6.8968330"/>
 <node id="920344504" visible="true" version="1" changeset="5837860" timestamp="2010-09-21T15:23:23Z" user="olvagor" uid="63969" lat="47.9083330" lon="-16.1025000"/>
 <node id="920344513" visible="true" version="1" changeset="5837860" timestamp="2010-09-21T15:23:24Z" user="olvagor" uid="63969" lat="49.2291670" lon="-10.6375000"/>
 <node id="920344532" visible="true" version="1" changeset="5837860" timestamp="2010-09-21T15:23:24Z" user="olvagor" uid="63969" lat="49.4023330" lon="-9.6026670"/>
 <node id="920344579" visible="true" version="1" changeset="5837860" timestamp="2010-09-21T15:23:25Z" user="olvagor" uid="63969" lat="49.7401670" lon="-6.5951670"/>
 <node id="920344587" visible="true" version="1" changeset="5837860" timestamp="2010-09-21T15:23:25Z" user="olvagor" uid="63969" lat="50.0218330" lon="-5.8601670"/>
 <node id="920344626" visible="true" version="1" changeset="5837860" timestamp="2010-09-21T15:23:26Z" user="olvagor" uid="63969" lat="48.8666670" lon="-13.8333330"/>
 <node id="920344646" visible="true" version="1" changeset="5837860" timestamp="2010-09-21T15:23:26Z" user="olvagor" uid="63969" lat="47.1833330" lon="-19.0000000"/>
 <node id="920344673" visible="true" version="1" changeset="5837860" timestamp="2010-09-21T15:23:26Z" user="olvagor" uid="63969" lat="48.9268330" lon="-13.0601670"/>
 <node id="920344679" visible="true" version="1" changeset="5837860" timestamp="2010-09-21T15:23:26Z" user="olvagor" uid="63969" lat="49.4620000" lon="-9.2333330"/>
 <node id="920344716" visible="true" version="1" changeset="5837860" timestamp="2010-09-21T15:23:27Z" user="olvagor" uid="63969" lat="49.9698330" lon="-5.9521670"/>
 <node id="920344732" visible="true" version="1" changeset="5837860" timestamp="2010-09-21T15:23:27Z" user="olvagor" uid="63969" lat="50.0852170" lon="-5.7045500"/>
 <node id="920344760" visible="true" version="1" changeset="5837860" timestamp="2010-09-21T15:23:27Z" user="olvagor" uid="63969" lat="49.6871670" lon="-7.1505000"/>
 <node id="920344780" visible="true" version="1" changeset="5837860" timestamp="2010-09-21T15:23:28Z" user="olvagor" uid="63969" lat="47.0911670" lon="-19.8090000"/>
 <node id="920344811" visible="true" version="1" changeset="5837860" timestamp="2010-09-21T15:23:28Z" user="olvagor" uid="63969" lat="48.9913330" lon="-12.1486330"/>
 <node id="920344814" visible="true" version="1" changeset="5837860" timestamp="2010-09-21T15:23:28Z" user="olvagor" uid="63969" lat="49.5725000" lon="-8.3051670"/>
 <node id="920344846" visible="true" version="1" changeset="5837860" timestamp="2010-09-21T15:23:29Z" user="olvagor" uid="63969" lat="49.3933330" lon="-9.6510000"/>
 <node id="920344866" visible="true" version="1" changeset="5837860" timestamp="2010-09-21T15:23:29Z" user="olvagor" uid="63969" lat="50.0843330" lon="-5.7181670"/>
 <node id="920344887" visible="true" version="1" changeset="5837860" timestamp="2010-09-21T15:23:29Z" user="olvagor" uid="63969" lat="49.7188330" lon="-6.8301670"/>
 <node id="920344904" visible="true" version="1" changeset="5837860" timestamp="2010-09-21T15:23:30Z" user="olvagor" uid="63969" lat="47.3353330" lon="-17.8005000"/>
 <node id="920344924" visible="true" version="1" changeset="5837860" timestamp="2010-09-21T15:23:30Z" user="olvagor" uid="63969" lat="49.0841670" lon="-11.4635000"/>
 <node id="920344964" visible="true" version="1" changeset="5837860" timestamp="2010-09-21T15:23:31Z" user="olvagor" uid="63969" lat="49.4030000" lon="-9.5973330"/>
 <node id="920344996" visible="true" version="1" changeset="5837860" timestamp="2010-09-21T15:23:32Z" user="olvagor" uid="63969" lat="49.7145000" lon="-6.8441670"/>
 <node id="920345030" visible="true" version="1" changeset="5837860" timestamp="2010-09-21T15:23:32Z" user="olvagor" uid="63969" lat="47.4568330" lon="-16.9653330"/>
 <node id="920345069" visible="true" version="1" changeset="5837860" timestamp="2010-09-21T15:23:33Z" user="olvagor" uid="63969" lat="49.2760000" lon="-10.3668330"/>
 <node id="920345095" visible="true" version="1" changeset="5837860" timestamp="2010-09-21T15:23:33Z" user="olvagor" uid="63969" lat="48.9571670" lon="-12.6391670"/>
 <node id="920345097" visible="true" version="1" changeset="5837860" timestamp="2010-09-21T15:23:33Z" user="olvagor" uid="63969" lat="49.5000000" lon="-9.0000000"/>
 <node id="920345121" visible="true" version="1" changeset="5837860" timestamp="2010-09-21T15:23:34Z" user="olvagor" uid="63969" lat="49.7501670" lon="-6.4231670"/>
 <node id="920345126" visible="true" version="1" changeset="5837860" timestamp="2010-09-21T15:23:34Z" user="olvagor" uid="63969" lat="50.0711670" lon="-5.7778330"/>
 <node id="920345149" visible="true" version="1" changeset="5837860" timestamp="2010-09-21T15:23:34Z" user="olvagor" uid="63969" lat="48.2426670" lon="-15.3641670"/>
 <node id="920345172" visible="true" version="1" changeset="5837860" timestamp="2010-09-21T15:23:35Z" user="olvagor" uid="63969" lat="47.1835000" lon="-18.5413330"/>
 <node id="920345190" visible="true" version="1" changeset="5837860" timestamp="2010-09-21T15:23:35Z" user="olvagor" uid="63969" lat="49.0530500" lon="-11.6704670"/>
 <node id="920345192" visible="true" version="1" changeset="5837860" timestamp="2010-09-21T15:23:35Z" user="olvagor" uid="63969" lat="49.4776670" lon="-9.1500000"/>
 <node id="920345215" visible="true" version="1" changeset="5837860" timestamp="2010-09-21T15:23:36Z" user="olvagor" uid="63969" lat="49.8780000" lon="-6.1096670"/>
 <node id="920345221" visible="true" version="1" changeset="5837860" timestamp="2010-09-21T15:23:36Z" user="olvagor" uid="63969" lat="50.0850000" lon="-5.7001670"/>
 <node id="920345247" visible="true" version="1" changeset="5837860" timestamp="2010-09-21T15:23:36Z" user="olvagor" uid="63969" lat="49.6985000" lon="-7.0161670"/>
 <node id="920345268" visible="true" version="1" changeset="5837860" timestamp="2010-09-21T15:23:37Z" user="olvagor" uid="63969" lat="47.3380000" lon="-17.7788330"/>
 <node id="920345292" visible="true" version="1" changeset="5837860" timestamp="2010-09-21T15:23:37Z" user="olvagor" uid="63969" lat="49.0096670" lon="-11.9668330"/>
 <node id="920345298" visible="true" version="1" changeset="5837860" timestamp="2010-09-21T15:23:37Z" user="olvagor" uid="63969" lat="49.5958330" lon="-8.0800000"/>
 <node id="920345317" visible="true" version="1" changeset="5837860" timestamp="2010-09-21T15:23:38Z" user="olvagor" uid="63969" lat="49.3175000" lon="-10.1283330"/>
 <node id="920345348" visible="true" version="1" changeset="5837860" timestamp="2010-09-21T15:23:38Z" user="olvagor" uid="63969" lat="49.7240000" lon="-6.7776670"/>
 <node id="920345370" visible="true" version="1" changeset="5837860" timestamp="2010-09-21T15:23:39Z" user="olvagor" uid="63969" lat="47.7998330" lon="-16.3460000"/>
 <node id="920345380" visible="true" version="1" changeset="5837860" timestamp="2010-09-21T15:23:39Z" user="olvagor" uid="63969" lat="49.0975000" lon="-11.3833330"/>
 <node id="920345397" visible="true" version="1" changeset="5837860" timestamp="2010-09-21T15:23:39Z" user="olvagor" uid="63969" lat="49.4316670" lon="-9.4351670"/>
 <node id="920345414" visible="true" version="1" changeset="5837860" timestamp="2010-09-21T15:23:40Z" user="olvagor" uid="63969" lat="49.7500000" lon="-6.3650000"/>
 <node id="920345429" visible="true" version="1" changeset="5837860" timestamp="2010-09-21T15:23:40Z" user="olvagor" uid="63969" lat="47.6896670" lon="-16.5663330"/>
 <node id="920345434" visible="true" version="1" changeset="5837860" timestamp="2010-09-21T15:23:41Z" user="olvagor" uid="63969" lat="49.1616670" lon="-11.0216670"/>
 <node id="920345448" visible="true" version="1" changeset="5837860" timestamp="2010-09-21T15:23:41Z" user="olvagor" uid="63969" lat="48.9760000" lon="-12.3668330"/>
 <node id="920345449" visible="true" version="1" changeset="5837860" timestamp="2010-09-21T15:23:41Z" user="olvagor" uid="63969" lat="49.5250000" lon="-8.7666670"/>
 <node id="920345464" visible="true" version="1" changeset="5837860" timestamp="2010-09-21T15:23:41Z" user="olvagor" uid="63969" lat="49.9693330" lon="-5.9538330"/>
 <node id="920345470" visible="true" version="1" changeset="5837860" timestamp="2010-09-21T15:23:42Z" user="olvagor" uid="63969" lat="49.9795000" lon="-5.9270000"/>
 <node id="920345480" visible="true" version="1" changeset="5837860" timestamp="2010-09-21T15:23:42Z" user="olvagor" uid="63969" lat="48.4236670" lon="-14.8700000"/>
 <node id="920345494" visible="true" version="1" changeset="5837860" timestamp="2010-09-21T15:23:42Z" user="olvagor" uid="63969" lat="47.0483330" lon="-20.1705000"/>
 <node id="920345505" visible="true" version="1" changeset="5837860" timestamp="2010-09-21T15:23:43Z" user="olvagor" uid="63969" lat="49.0631670" lon="-11.5853330"/>
 <node id="920345506" visible="true" version="1" changeset="5837860" timestamp="2010-09-21T15:23:43Z" user="olvagor" uid="63969" lat="49.6041670" lon="-8.0000000"/>
 <node id="920345521" visible="true" version="1" changeset="5837860" timestamp="2010-09-21T15:23:43Z" user="olvagor" uid="63969" lat="49.9670000" lon="-5.9581670"/>
 <node id="920345526" visible="true" version="1" changeset="5837860" timestamp="2010-09-21T15:23:44Z" user="olvagor" uid="63969" lat="50.0821670" lon="-5.7338330"/>
 <node id="920345537" visible="true" version="1" changeset="5837860" timestamp="2010-09-21T15:23:44Z" user="olvagor" uid="63969" lat="49.6308330" lon="-7.7090000"/>
 <node id="920345552" visible="true" version="1" changeset="5837860" timestamp="2010-09-21T15:23:44Z" user="olvagor" uid="63969" lat="47.3640000" lon="-17.4166670"/>
 <node id="4550940864" visible="true" version="1" changeset="44346586" timestamp="2016-12-12T13:55:21Z" user="Russ" uid="3306" lat="46.9959971" lon="-20.5997152"/>
 <way id="78424029" visible="true" version="4" changeset="44346586" timestamp="2016-12-12T13:55:22Z" user="Russ" uid="3306">
  <nd ref="4550940864"/>
  <nd ref="920344346"/>
  <nd ref="920345494"/>
  <nd ref="920344780"/>
  <nd ref="920343380"/>
  <nd ref="920343607"/>
  <nd ref="920344646"/>
  <nd ref="920343997"/>
  <nd ref="920345172"/>
  <nd ref="920343440"/>
  <nd ref="920344442"/>
  <nd ref="920343800"/>
  <nd ref="920344904"/>
  <nd ref="920345268"/>
  <nd ref="920343699"/>
  <nd ref="920345552"/>
  <nd ref="920344090"/>
  <nd ref="920345030"/>
  <nd ref="920343494"/>
  <nd ref="920345429"/>
  <nd ref="920343894"/>
  <nd ref="920344152"/>
  <nd ref="920345370"/>
  <nd ref="920344504"/>
  <nd ref="920343199"/>
  <nd ref="920343976"/>
  <nd ref="920345149"/>
  <nd ref="920344316"/>
  <nd ref="920345480"/>
  <nd ref="920343294"/>
  <nd ref="920344236"/>
  <nd ref="920343589"/>
  <nd ref="920344626"/>
  <nd ref="920343336"/>
  <nd ref="920344266"/>
  <nd ref="920343623"/>
  <nd ref="920344673"/>
  <nd ref="920345095"/>
  <nd ref="920343524"/>
  <nd ref="920345448"/>
  <nd ref="920343932"/>
  <nd ref="920344811"/>
  <nd ref="920343391"/>
  <nd ref="920345292"/>
  <nd ref="920343722"/>
  <nd ref="920344018"/>
  <nd ref="920345190"/>
  <nd ref="920344368"/>
  <nd ref="920345505"/>
  <nd ref="920343818"/>
  <nd ref="920344924"/>
  <nd ref="920344161"/>
  <nd ref="920345380"/>
  <nd ref="920343124"/>
  <nd ref="920344108"/>
  <nd ref="920343450"/>
  <nd ref="920344461"/>
  <nd ref="920345434"/>
  <nd ref="920343914"/>
  <nd ref="920343318"/>
  <nd ref="920344247"/>
  <nd ref="920344513"/>
  <nd ref="920343220"/>
  <nd ref="920345069"/>
  <nd ref="920343509"/>
  <nd ref="920344123"/>
  <nd ref="920345317"/>
  <nd ref="920344475"/>
  <nd ref="920343149"/>
  <nd ref="920343407"/>
  <nd ref="920344391"/>
  <nd ref="920343751"/>
  <nd ref="920344846"/>
  <nd ref="920343241"/>
  <nd ref="920344183"/>
  <nd ref="920343525"/>
  <nd ref="920344532"/>
  <nd ref="920344964"/>
  <nd ref="920343465"/>
  <nd ref="920345397"/>
  <nd ref="920343845"/>
  <nd ref="920344679"/>
  <nd ref="920343337"/>
  <nd ref="920345192"/>
  <nd ref="920343624"/>
  <nd ref="920343933"/>
  <nd ref="920345097"/>
  <nd ref="920344269"/>
  <nd ref="920345449"/>
  <nd ref="920343727"/>
  <nd ref="920344814"/>
  <nd ref="920344111"/>
  <nd ref="920345298"/>
  <nd ref="920345506"/>
  <nd ref="920344021"/>
  <nd ref="920343393"/>
  <nd ref="920344370"/>
  <nd ref="920345537"/>
  <nd ref="920344068"/>
  <nd ref="920343425"/>
  <nd ref="920344415"/>
  <nd ref="920344760"/>
  <nd ref="920343367"/>
  <nd ref="920345247"/>
  <nd ref="920343686"/>
  <nd ref="920344490"/>
  <nd ref="920343181"/>
  <nd ref="920344996"/>
  <nd ref="920343480"/>
  <nd ref="920343790"/>
  <nd ref="920344887"/>
  <nd ref="920344138"/>
  <nd ref="920345348"/>
  <nd ref="920343560"/>
  <nd ref="920344579"/>
  <nd ref="920343957"/>
  <nd ref="920345121"/>
  <nd ref="920345414"/>
  <nd ref="920343868"/>
  <nd ref="920343266"/>
  <nd ref="920344212"/>
  <nd ref="920345215"/>
  <nd ref="920343646"/>
  <nd ref="920345521"/>
  <nd ref="920344044"/>
  <nd ref="920344295"/>
  <nd ref="920345464"/>
  <nd ref="920344716"/>
  <nd ref="920343353"/>
  <nd ref="920345470"/>
  <nd ref="920343959"/>
  <nd ref="920343356"/>
  <nd ref="920344299"/>
  <nd ref="920344587"/>
  <nd ref="920343272"/>
  <nd ref="920345126"/>
  <nd ref="920343564"/>
  <nd ref="920344394"/>
  <nd ref="920345526"/>
  <nd ref="920344866"/>
  <nd ref="920343412"/>
  <nd ref="920343660"/>
  <nd ref="920344732"/>
  <nd ref="920344051"/>
  <nd ref="920345221"/>
  <nd ref="920343469"/>
  <tag k="communication" v="line"/>
  <tag k="description" v="BROOKHAVEN TO SENNEN COVE"/>
  <tag k="name" v="Atlantic Crossing 1 (AC1)Seg.C"/>
  <tag k="operator" v="Global Crossing"/>
  <tag k="phone" v="+44 208 9299 399"/>
  <tag k="seamark:cable_submarine:category" v="fibre_optic"/>
  <tag k="seamark:type" v="cable_submarine"/>
  <tag k="source" v="Kingfisher Information Service, February 2010, http://www.kisca.org.uk/charts.htm"/>
  <tag k="submarine" v="yes"/>
  <tag k="wikipedia" v="en:Atlantic Crossing 1"/>
 </way>
</osm>
